…
    ## using cached file: ~/Library/Caches/R/noaa_ghcnd/USS0023B17S.dly

    ## date created (size, mb): 2021-10-05 10:29:32 (0.912)

    ## file min/max dates: 1999-09-01 / 2021-09-30

## `group_by`

``` r
weather_df %>% 
  group_by(name, month)
```

    ## # A tibble: 1,095 x 7
    ## # Groups:   name, month [36]
    ##    name           id          date        prcp  tmax  tmin month     
    ##    <chr>          <chr>       <date>     <dbl> <dbl> <dbl> <date>    
    ##  1 CentralPark_NY USW00094728 2017-01-01     0   8.9   4.4 2017-01-01
    ##  2 CentralPark_NY USW00094728 2017-01-02    53   5     2.8 2017-01-01
    ##  3 CentralPark_NY USW00094728 2017-01-03   147   6.1   3.9 2017-01-01
    ##  4 CentralPark_NY USW00094728 2017-01-04     0  11.1   1.1 2017-01-01
    ##  5 CentralPark_NY USW00094728 2017-01-05     0   1.1  -2.7 2017-01-01
    ##  6 CentralPark_NY USW00094728 2017-01-06    13   0.6  -3.8 2017-01-01
    ##  7 CentralPark_NY USW00094728 2017-01-07    81  -3.2  -6.6 2017-01-01
    ##  8 CentralPark_NY USW00094728 2017-01-08     0  -3.8  -8.8 2017-01-01
    ##  9 CentralPark_NY USW00094728 2017-01-09     0  -4.9  -9.9 2017-01-01
    ## 10 CentralPark_NY USW00094728 2017-01-10     0   7.8  -6   2017-01-01
    ## # … with 1,085 more rows
…
    ## Warning: Removed 10037 rows containing missing values (geom_point).

<img src="viz_and_eda_files/figure-gfm/unnamed-chunk-45-1.png" width="90%" />

``` r
nyc_airbnb %>% 
  group_by(neighbourhood) %>% 
  summarize(mean_price = mean(price, na.rm = TRUE)) %>% 
  arrange(mean_price)
```

    ## # A tibble: 217 x 2
    ##    neighbourhood     mean_price
    ##    <chr>                  <dbl>
    ##  1 Little Neck             41.7
    ##  2 Schuylerville           42.6
    ##  3 Morris Heights          47.6
    ##  4 Mount Eden              49.3
    ##  5 Soundview               50.6
    ##  6 Claremont Village       51.6
    ##  7 Hunts Point             52.2
    ##  8 Baychester              54  
    ##  9 Rosebank                55  
    ## 10 Belmont                 55.4
    ## # … with 207 more rows
…
